
Date - 26 Sep 2019 17:29:22
Level - ERROR
UserAgent - Mozilla/5.0 (Windows NT 10.0; Win64; x64) AppleWebKit/537.36 (KHTML, like Gecko) Chrome/77.0.3865.90 Safari/537.36
Message - 
Error Message: An error occurred while executing the command definition. See the inner exception for details.

User Referrer: localhost:3288

Browser Name: Chrome

UserId: 

Logger: Znode.Engine.Api.Client

Debug Object Details: 


Znode.Engine.Exceptions.ZnodeException: An error occurred while executing the command definition. See the inner exception for details.
   at Znode.Engine.Api.Client.BaseClient.CheckStatusAndThrow[T](ApiStatus status, Collection`1 expectedStatusCodes) in D:\Jenkins-Znode\workspace\Znode-NuGet-Project-Build\Projects\Engines\Znode.Engine.Api.Client\Clients\Clients\Shared\BaseClient.cs:line 204
   at Znode.Engine.Api.Client.UserClient.GetAccountByUser(String username) in D:\Jenkins-Znode\workspace\Znode-NuGet-Project-Build\Projects\Engines\Znode.Engine.Api.Client\Clients\Clients\User\UserClient.cs:line 78
   at Znode.Engine.WebStore.BaseAgent.GetUserDetails() in D:\Jenkins-Znode\workspace\Znode-NuGet-Project-Build\Projects\Libraries\Znode.WebStore.Core\Agents\Agents\BaseAgent.cs:line 151

Date - 26 Sep 2019 17:51:07
Level - ERROR
UserAgent - Mozilla/5.0 (Windows NT 10.0; Win64; x64) AppleWebKit/537.36 (KHTML, like Gecko) Chrome/77.0.3865.90 Safari/537.36
Message - 
Error Message: An error occurred while executing the command definition. See the inner exception for details.

User Referrer: localhost:3288

Browser Name: Chrome

UserId: 

Logger: Znode.Engine.Api.Client

Debug Object Details: 


Znode.Engine.Exceptions.ZnodeException: An error occurred while executing the command definition. See the inner exception for details.
   at Znode.Engine.Api.Client.BaseClient.CheckStatusAndThrow[T](ApiStatus status, Collection`1 expectedStatusCodes) in D:\Jenkins-Znode\workspace\Znode-NuGet-Project-Build\Projects\Engines\Znode.Engine.Api.Client\Clients\Clients\Shared\BaseClient.cs:line 204
   at Znode.Engine.Api.Client.UserClient.GetAccountByUser(String username) in D:\Jenkins-Znode\workspace\Znode-NuGet-Project-Build\Projects\Engines\Znode.Engine.Api.Client\Clients\Clients\User\UserClient.cs:line 78
   at Znode.Engine.WebStore.BaseAgent.GetUserDetails() in D:\Jenkins-Znode\workspace\Znode-NuGet-Project-Build\Projects\Libraries\Znode.WebStore.Core\Agents\Agents\BaseAgent.cs:line 151
